T1L0Q0M0H0 28.8566 17.1538 40.5595
T1L0Q0M0H1 28.7057 17.0712 40.3403
T1L0Q0M1H0 28.8721 17.2575 40.4867
T1L0Q0M1H1 28.8398 17.1906 40.489
T1L0Q0M2H0 29.0742 17.6119 40.5366
T1L0Q0M2H1 28.9665 17.5028 40.4302
T1L0Q0M3H0 29.3187 17.8675 40.7699
T1L0Q0M3H1 29.2468 17.7977 40.6958
T1L0Q0M4H0 29.6875 17.1875 42.1875
T1L0Q0M4H1 29.4404 17.8088 41.0721
