T1L0Q0M0H0 27.8693 15.0575 40.6811
T1L0Q0M0H1 27.7506 14.7825 40.7187
T1L0Q0M1H0 28.0441 15.4565 40.6318
T1L0Q0M1H1 28.0562 15.4277 40.6846
T1L0Q0M2H0 28.5135 16.0542 40.9728
T1L0Q0M2H1 28.3285 15.9412 40.7159
T1L0Q0M3H0 28.5806 16.5143 40.6469
T1L0Q0M3H1 28.5651 16.5151 40.6152
T1L0Q0M4H0 32.4219 16.3281 38.4375
T1L0Q0M4H1 28.931 16.2734 41.5885
