T1L0Q0M0H0  25.2711 23.1922 17.1538 40.346
T1L0Q0M0H1  25.0963 22.9288 17.0712 40
T1L0Q0M1H0  25.3678 23.1722 17.2575 40.4297
T1L0Q0M1H1  25.3161 23.2156 17.1906 40.4062
T1L0Q0M2H0  25.5529 22.6886 17.6119 40.3005
T1L0Q0M2H1  25.488 22.8149 17.5028 40.3177
T1L0Q0M3H0  25.674 22.3044 17.8675 40.1719
T1L0Q0M3H1  25.7838 22.8175 17.7977 40.6152
T1L0Q0M4H0  25.9375 25 17.1875 42.1875
T1L0Q0M4H1  25.8116 22.865 17.8088 40.6738
