T1L0Q0M0H0  24.3276 11.8066 18.4243 30.2309
T1L0Q0M0H1  24.9715 13.307 18.318 31.625
T1L0Q0M1H0  25.2321 13.4028 18.5307 31.9335
T1L0Q0M1H1  24.2455 11.5953 18.4478 30.0431
T1L0Q0M2H0  25.658 12.5902 19.3629 31.9531
T1L0Q0M2H1  27.3076 16.8846 18.8653 35.7499
T1L0Q0M3H0  26.5648 14.0087 19.5605 33.5692
T1L0Q0M3H1  24.3503 9.8814 19.4096 29.291
T1L0Q0M4H0  29.6875 23.8282 17.7734 41.6016
T1L0Q0M4H1  28.6471 14.0716 21.6113 35.6829
